('/home/aditya02/IP/anticp2/anticp2/build/anticp2/PYZ-00.pyz',
 [('subprocess', '/usr/lib/python3.8/subprocess.py', 'PYMODULE'),
  ('selectors', '/usr/lib/python3.8/selectors.py', 'PYMODULE'),
  ('contextlib', '/usr/lib/python3.8/contextlib.py', 'PYMODULE'),
  ('threading', '/usr/lib/python3.8/threading.py', 'PYMODULE'),
  ('_threading_local', '/usr/lib/python3.8/_threading_local.py', 'PYMODULE'),
  ('signal', '/usr/lib/python3.8/signal.py', 'PYMODULE'),
  ('_strptime', '/usr/lib/python3.8/_strptime.py', 'PYMODULE'),
  ('datetime', '/usr/lib/python3.8/datetime.py', 'PYMODULE'),
  ('calendar', '/usr/lib/python3.8/calendar.py', 'PYMODULE'),
  ('copy', '/usr/lib/python3.8/copy.py', 'PYMODULE'),
  ('token', '/usr/lib/python3.8/token.py', 'PYMODULE'),
  ('_py_abc', '/usr/lib/python3.8/_py_abc.py', 'PYMODULE'),
  ('typing', '/usr/lib/python3.8/typing.py', 'PYMODULE'),
  ('bz2', '/usr/lib/python3.8/bz2.py', 'PYMODULE'),
  ('_compression', '/usr/lib/python3.8/_compression.py', 'PYMODULE'),
  ('stringprep', '/usr/lib/python3.8/stringprep.py', 'PYMODULE'),
  ('base64', '/usr/lib/python3.8/base64.py', 'PYMODULE'),
  ('getopt', '/usr/lib/python3.8/getopt.py', 'PYMODULE'),
  ('gettext', '/usr/lib/python3.8/gettext.py', 'PYMODULE'),
  ('struct', '/usr/lib/python3.8/struct.py', 'PYMODULE'),
  ('quopri', '/usr/lib/python3.8/quopri.py', 'PYMODULE'),
  ('os', '/usr/lib/python3.8/os.py', 'PYMODULE'),
  ('ntpath', '/usr/lib/python3.8/ntpath.py', 'PYMODULE'),
  ('string', '/usr/lib/python3.8/string.py', 'PYMODULE'),
  ('genericpath', '/usr/lib/python3.8/genericpath.py', 'PYMODULE'),
  ('posixpath', '/usr/lib/python3.8/posixpath.py', 'PYMODULE'),
  ('stat', '/usr/lib/python3.8/stat.py', 'PYMODULE'),
  ('pickle', '/usr/lib/python3.8/pickle.py', 'PYMODULE'),
  ('pprint', '/usr/lib/python3.8/pprint.py', 'PYMODULE'),
  ('_compat_pickle', '/usr/lib/python3.8/_compat_pickle.py', 'PYMODULE'),
  ('tracemalloc', '/usr/lib/python3.8/tracemalloc.py', 'PYMODULE'),
  ('fnmatch', '/usr/lib/python3.8/fnmatch.py', 'PYMODULE'),
  ('argparse', '/usr/lib/python3.8/argparse.py', 'PYMODULE'),
  ('textwrap', '/usr/lib/python3.8/textwrap.py', 'PYMODULE'),
  ('shutil', '/usr/lib/python3.8/shutil.py', 'PYMODULE'),
  ('zipfile', '/usr/lib/python3.8/zipfile.py', 'PYMODULE'),
  ('py_compile', '/usr/lib/python3.8/py_compile.py', 'PYMODULE'),
  ('importlib.machinery',
   '/usr/lib/python3.8/importlib/machinery.py',
   'PYMODULE'),
  ('importlib', '/usr/lib/python3.8/importlib/__init__.py', 'PYMODULE'),
  ('importlib._bootstrap',
   '/usr/lib/python3.8/importlib/_bootstrap.py',
   'PYMODULE'),
  ('importlib._bootstrap_external',
   '/usr/lib/python3.8/importlib/_bootstrap_external.py',
   'PYMODULE'),
  ('importlib.metadata',
   '/usr/lib/python3.8/importlib/metadata.py',
   'PYMODULE'),
  ('importlib.abc', '/usr/lib/python3.8/importlib/abc.py', 'PYMODULE'),
  ('configparser', '/usr/lib/python3.8/configparser.py', 'PYMODULE'),
  ('pathlib', '/usr/lib/python3.8/pathlib.py', 'PYMODULE'),
  ('urllib.parse', '/usr/lib/python3.8/urllib/parse.py', 'PYMODULE'),
  ('urllib', '/usr/lib/python3.8/urllib/__init__.py', 'PYMODULE'),
  ('email', '/usr/lib/python3.8/email/__init__.py', 'PYMODULE'),
  ('email.parser', '/usr/lib/python3.8/email/parser.py', 'PYMODULE'),
  ('email._policybase', '/usr/lib/python3.8/email/_policybase.py', 'PYMODULE'),
  ('email.utils', '/usr/lib/python3.8/email/utils.py', 'PYMODULE'),
  ('email._parseaddr', '/usr/lib/python3.8/email/_parseaddr.py', 'PYMODULE'),
  ('socket', '/usr/lib/python3.8/socket.py', 'PYMODULE'),
  ('random', '/usr/lib/python3.8/random.py', 'PYMODULE'),
  ('hashlib', '/usr/lib/python3.8/hashlib.py', 'PYMODULE'),
  ('logging', '/usr/lib/python3.8/logging/__init__.py', 'PYMODULE'),
  ('bisect', '/usr/lib/python3.8/bisect.py', 'PYMODULE'),
  ('email.feedparser', '/usr/lib/python3.8/email/feedparser.py', 'PYMODULE'),
  ('email.message', '/usr/lib/python3.8/email/message.py', 'PYMODULE'),
  ('email.policy', '/usr/lib/python3.8/email/policy.py', 'PYMODULE'),
  ('email.contentmanager',
   '/usr/lib/python3.8/email/contentmanager.py',
   'PYMODULE'),
  ('email.quoprimime', '/usr/lib/python3.8/email/quoprimime.py', 'PYMODULE'),
  ('email.headerregistry',
   '/usr/lib/python3.8/email/headerregistry.py',
   'PYMODULE'),
  ('email.iterators', '/usr/lib/python3.8/email/iterators.py', 'PYMODULE'),
  ('email.generator', '/usr/lib/python3.8/email/generator.py', 'PYMODULE'),
  ('email._encoded_words',
   '/usr/lib/python3.8/email/_encoded_words.py',
   'PYMODULE'),
  ('uu', '/usr/lib/python3.8/uu.py', 'PYMODULE'),
  ('optparse', '/usr/lib/python3.8/optparse.py', 'PYMODULE'),
  ('email._header_value_parser',
   '/usr/lib/python3.8/email/_header_value_parser.py',
   'PYMODULE'),
  ('email.header', '/usr/lib/python3.8/email/header.py', 'PYMODULE'),
  ('email.base64mime', '/usr/lib/python3.8/email/base64mime.py', 'PYMODULE'),
  ('email.charset', '/usr/lib/python3.8/email/charset.py', 'PYMODULE'),
  ('email.encoders', '/usr/lib/python3.8/email/encoders.py', 'PYMODULE'),
  ('email.errors', '/usr/lib/python3.8/email/errors.py', 'PYMODULE'),
  ('csv', '/usr/lib/python3.8/csv.py', 'PYMODULE'),
  ('importlib.util', '/usr/lib/python3.8/importlib/util.py', 'PYMODULE'),
  ('tarfile', '/usr/lib/python3.8/tarfile.py', 'PYMODULE'),
  ('gzip', '/usr/lib/python3.8/gzip.py', 'PYMODULE'),
  ('lzma', '/usr/lib/python3.8/lzma.py', 'PYMODULE')])
